Abschlussprojekt zu Eheschliessungen vom 16. bis 18. Jahrhundert
…
Abschlussprojekt zu Eheschliessungen vom 16. bis 18. Jahrhundert

library(tidyverse)
library(readr)
library(here)
library(statR)
library(ggthemes)
library(gt)

read_csv(here::here("daten/raw/EDB_16_18_Jh_Stand_2024_05_14.csv"))

# A tibble: 296,207 × 20
   Signatur   Nachname_Mann Vorname_Mann Herkunft_Mann HLS_Artikel_Mann GND_Mann
   <chr>      <chr>         <chr>        <chr>         <lgl>            <lgl>   
 1 TAI 1.725… Iringer       Heinrich     Richterswil   NA               NA      
 2 TAI 1.725… Kräutli       Oswald       <NA>          NA               NA      
 3 TAI 1.725… Nussbaumer    Jeremias     <NA>          NA               NA      
 4 TAI 1.725… Geilinger     Wolfgang     <NA>          NA               NA      
 5 TAI 1.725… Wehrli        Marx         <NA>          NA               NA      
 6 TAI 1.725… Schwaninger   Hans Ulrich  <NA>          NA               NA      
 7 TAI 1.725… Bucher        Schwideri    <NA>          NA               NA      
 8 TAI 1.725… Dingli        Hans         <NA>          NA               NA      
 9 TAI 1.725… Wahl          Martin       Ulm (Deutsch… NA               NA      
10 TAI 1.725… Kappeler      Jakob        <NA>          NA               NA      
# ℹ 296,197 more rows
# ℹ 14 more variables: Nachname_Frau <chr>, Vorname_Frau <chr>,
#   Herkunft_Frau <chr>, HLS_Artikel_Frau <lgl>, GND_Frau <lgl>,
#   Zusatzinfo_Mann <chr>, Zusatzinfo_Frau <chr>, Datum <chr>,
#   Datum_Von <date>, Datum_Bis <date>, Kirchgemeinde <chr>, Band <chr>,
#   Webseite <chr>, ID <dbl>
…
